counter/result.vcd
$date
  Tue Feb 20 20:37:27 2024
$end
$version
  GHDL v0
$end
$timescale
  1 fs
$end
$scope module standard $end
$upscope $end
$scope module std_logic_1164 $end
$upscope $end
$scope module countertest $end
$var reg 1 ! clk $end
$var reg 1 " rst $end
$var reg 3 # q[2:0] $end
$scope module counter1 $end
$var reg 1 $ clk $end
$var reg 1 % rst $end
$var reg 3 & q[2:0] $end
$var reg 1 ' qa $end
$var reg 1 ( qb $end
$var reg 1 ) qc $end
$var reg 1 * tc $end
$scope module t1 $end
$var reg 1 + t $end
$var reg 1 , clk $end
$var reg 1 - rst $end
$var reg 1 . q $end
$var reg 1 / q_temp $end
$upscope $end
$scope module t2 $end
$var reg 1 0 t $end
$var reg 1 1 clk $end
$var reg 1 2 rst $end
$var reg 1 3 q $end
$var reg 1 4 q_temp $end
$upscope $end
$scope module a1 $end
$var reg 1 5 a $end
$var reg 1 6 b $end
$var reg 1 7 z $end
$upscope $end
$scope module t3 $end
$var reg 1 8 t $end
$var reg 1 9 clk $end
$var reg 1 : rst $end
$var reg 1 ; q $end
$var reg 1 < q_temp $end
$upscope $end
$upscope $end
$upscope $end
$enddefinitions $end
#0
0!
1"
b000 #
0$
1%
b000 &
0'
0(
U)
0*
1+
0,
1-
0.
0/
00
01
12
03
04
05
06
07
08
09
1:
0;
0<
#5000000
1!
1$
1,
11
19
#10000000
0!
0"
0$
0%
0,
0-
01
02
09
0:
#15000000
1!
b001 #
1$
b001 &
1'
1,
1.
1/
10
11
15
19
#20000000
0!
1"
b000 #
0$
1%
b000 &
0'
0,
1-
0.
0/
00
01
12
05
09
1:
#25000000
1!
1$
1,
11
19
#30000000
0!
0"
0$
0%
0,
0-
01
02
09
0:
#35000000
1!
b001 #
1$
b001 &
1'
1,
1.
1/
10
11
15
19
#40000000
0!
1"
b000 #
0$
1%
b000 &
0'
0,
1-
0.
0/
00
01
12
05
09
1:
#45000000
1!
1$
1,
11
19
#50000000
0!
0"
0$
0%
0,
0-
01
02
09
0:
#55000000
1!
b001 #
1$
b001 &
1'
1,
1.
1/
10
11
15
19
#60000000
0!
1"
b000 #
0$
1%
b000 &
0'
0,
1-
0.
0/
00
01
12
05
09
1:
#65000000
1!
1$
1,
11
19
#70000000
0!
0"
0$
0%
0,
0-
01
02
09
0:
#75000000
1!
b001 #
1$
b001 &
1'
1,
1.
1/
10
11
15
19
#80000000
0!
1"
b000 #
0$
1%
b000 &
0'
0,
1-
0.
0/
00
01
12
05
09
1:
#85000000
1!
1$
1,
11
19
#90000000
0!
0"
0$
0%
0,
0-
01
02
09
0:
#95000000
1!
b001 #
1$
b001 &
1'
1,
1.
1/
10
11
15
19
#100000000
0!
1"
b000 #
0$
1%
b000 &
0'
0,
1-
0.
0/
00
01
12
05
09
1:
#105000000
1!
1$
1,
11
19
#110000000
0!
0"
0$
0%
0,
0-
01
02
09
0:
#115000000
1!
b001 #
1$
b001 &
1'
1,
1.
1/
10
11
15
19
#120000000
0!
1"
b000 #
0$
1%
b000 &
0'
0,
1-
0.
0/
00
01
12
05
09
1:
#125000000
1!
1$
1,
11
19
#130000000
0!
0"
0$
0%
0,
0-
01
02
09
0:
#135000000
1!
b001 #
1$
b001 &
1'
1,
1.
1/
10
11
15
19
#140000000
0!
1"
b000 #
0$
1%
b000 &
0'
0,
1-
0.
0/
00
01
12
05
09
1:
#145000000
1!
1$
1,
11
19
#150000000
0!
0"
0$
0%
0,
0-
01
02
09
0:
#155000000
1!
b001 #
1$
b001 &
1'
1,
1.
1/
10
11
15
19
#160000000
0!
1"
b000 #
0$
1%
b000 &
0'
0,
1-
0.
0/
00
01
12
05
09
1:
#165000000
1!
1$
1,
11
19
#170000000
0!
0"
0$
0%
0,
0-
01
02
09
0:
#175000000
1!
b001 #
1$
b001 &
1'
1,
1.
1/
10
11
15
19
#180000000
0!
1"
b000 #
0$
1%
b000 &
0'
0,
1-
0.
0/
00
01
12
05
09
1:
#185000000
1!
1$
1,
11
19
#190000000
0!
0"
0$
0%
0,
0-
01
02
09
0:
#195000000
1!
b001 #
1$
b001 &
1'
1,
1.
1/
10
11
15
19
#200000000
0!
1"
b000 #
0$
1%
b000 &
0'
0,
1-
0.
0/
00
01
12
05
09
1:
#205000000
1!
1$
1,
11
19
#210000000
0!
0"
0$
0%
0,
0-
01
02
09
0:
#215000000
1!
b001 #
1$
b001 &
1'
1,
1.
1/
10
11
15
19
#220000000
0!
1"
b000 #
0$
1%
b000 &
0'
0,
1-
0.
0/
00
01
12
05
09
1:
#225000000
1!
1$
1,
11
19
#230000000
0!
0"
0$
0%
0,
0-
01
02
09
0:
#235000000
1!
b001 #
1$
b001 &
1'
1,
1.
1/
10
11
15
19
#240000000
0!
1"
b000 #
0$
1%
b000 &
0'
0,
1-
0.
0/
00
01
12
05
09
1:
#245000000
1!
1$
1,
11
19
#250000000
0!
0"
0$
0%
0,
0-
01
02
09
0:
#255000000
1!
b001 #
1$
b001 &
1'
1,
1.
1/
10
11
15
19
#260000000
0!
1"
b000 #
0$
1%
b000 &
0'
0,
1-
0.
0/
00
01
12
05
09
1:
#265000000
1!
1$
1,
11
19
#270000000
0!
0"
0$
0%
0,
0-
01
02
09
0:
#275000000
1!
b001 #
1$
b001 &
1'
1,
1.
1/
10
11
15
19
#280000000
0!
1"
b000 #
0$
1%
b000 &
0'
0,
1-
0.
0/
00
01
12
05
09
1:
#285000000
1!
1$
1,
11
19
#290000000
0!
0"
0$
0%
0,
0-
01
02
09
0:
#295000000
1!
b001 #
1$
b001 &
1'
1,
1.
1/
10
11
15
19
#300000000
0!
1"
b000 #
0$
1%
b000 &
0'
0,
1-
0.
0/
00
01
12
05
09
1:
#305000000
1!
1$
1,
11
19
#310000000
0!
0"
0$
0%
0,
0-
01
02
09
0:
#315000000
1!
b001 #
1$
b001 &
1'
1,
1.
1/
10
11
15
19
#320000000
0!
1"
b000 #
0$
1%
b000 &
0'
0,
1-
0.
0/
00
01
12
05
09
1:
#325000000
1!
1$
1,
11
19
#330000000
0!
0"
0$
0%
0,
0-
01
02
09
0:
#335000000
1!
b001 #
1$
b001 &
1'
1,
1.
1/
10
11
15
19
#340000000
0!
1"
b000 #
0$
1%
b000 &
0'
0,
1-
0.
0/
00
01
12
05
09
1:
#345000000
1!
1$
1,
11
19
#350000000
0!
0"
0$
0%
0,
0-
01
02
09
0:
#355000000
1!
b001 #
1$
b001 &
1'
1,
1.
1/
10
11
15
19
#360000000
0!
1"
b000 #
0$
1%
b000 &
0'
0,
1-
0.
0/
00
01
12
05
09
1:
#365000000
1!
1$
1,
11
19
#370000000
0!
0"
0$
0%
0,
0-
01
02
09
0:
#375000000
1!
b001 #
1$
b001 &
1'
1,
1.
1/
10
11
15
19
#380000000
0!
1"
b000 #
0$
1%
b000 &
0'
0,
1-
0.
0/
00
01
12
05
09
1:
#385000000
1!
1$
1,
11
19
#390000000
0!
0"
0$
0%
0,
0-
01
02
09
0:
#395000000
1!
b001 #
1$
b001 &
1'
1,
1.
1/
10
11
15
19
#400000000
0!
1"
b000 #
0$
1%
b000 &
0'
0,
1-
0.
0/
00
01
12
05
09
1:
#405000000
1!
1$
1,
11
19
#410000000
0!
0"
0$
0%
0,
0-
01
02
09
0:
#415000000
1!
b001 #
1$
b001 &
1'
1,
1.
1/
10
11
15
19
#420000000
0!
1"
b000 #
0$
1%
b000 &
0'
0,
1-
0.
0/
00
01
12
05
09
1:
#425000000
1!
1$
1,
11
19
#430000000
0!
0"
0$
0%
0,
0-
01
02
09
0:
#435000000
1!
b001 #
1$
b001 &
1'
1,
1.
1/
10
11
15
19
#440000000
0!
1"
b000 #
0$
1%
b000 &
0'
0,
1-
0.
0/
00
01
12
05
09
1:
#445000000
1!
1$
1,
11
19
#450000000
0!
0"
0$
0%
0,
0-
01
02
09
0:
#455000000
1!
b001 #
1$
b001 &
1'
1,
1.
1/
10
11
15
19
#460000000
0!
1"
b000 #
0$
1%
b000 &
0'
0,
1-
0.
0/
00
01
12
05
09
1:
#465000000
1!
1$
1,
11
19
#470000000
0!
0"
0$
0%
0,
0-
01
02
09
0:
#475000000
1!
b001 #
1$
b001 &
1'
1,
1.
1/
10
11
15
19
#480000000
0!
1"
b000 #
0$
1%
b000 &
0'
0,
1-
0.
0/
00
01
12
05
09
1:
#485000000
1!
1$
1,
11
19
#490000000
0!
0"
0$
0%
0,
0-
01
02
09
0:
#495000000
1!
b001 #
1$
b001 &
1'
1,
1.
1/
10
11
15
19
#500000000
0!
1"
b000 #
0$
1%
b000 &
0'
0,
1-
0.
0/
00
01
12
05
09
1:
#505000000
1!
1$
1,
11
19
#510000000
0!
0"
0$
0%
0,
0-
01
02
09
0:
#515000000
1!
b001 #
1$
b001 &
1'
1,
1.
1/
10
11
15
19
#520000000
0!
1"
b000 #
0$
1%
b000 &
0'
0,
1-
0.
0/
00
01
12
05
09
1:
#525000000
1!
1$
1,
11
19
#530000000
0!
0"
0$
0%
0,
0-
01
02
09
0:
#535000000
1!
b001 #
1$
b001 &
1'
1,
1.
1/
10
11
15
19
#540000000
0!
1"
b000 #
0$
1%
b000 &
0'
0,
1-
0.
0/
00
01
12
05
09
1:
#545000000
1!
1$
1,
11
19
#550000000
0!
0"
0$
0%
0,
0-
01
02
09
0:
#555000000
1!
b001 #
1$
b001 &
1'
1,
1.
1/
10
11
15
19
#560000000
0!
1"
b000 #
0$
1%
b000 &
0'
0,
1-
0.
0/
00
01
12
05
09
1:
#565000000
1!
1$
1,
11
19
#570000000
0!
0"
0$
0%
0,
0-
01
02
09
0:
#575000000
1!
b001 #
1$
b001 &
1'
1,
1.
1/
10
11
15
19
#580000000
0!
1"
b000 #
0$
1%
b000 &
0'
0,
1-
0.
0/
00
01
12
05
09
1:
#585000000
1!
1$
1,
11
19
#590000000
0!
0"
0$
0%
0,
0-
01
02
09
0:
#595000000
1!
b001 #
1$
b001 &
1'
1,
1.
1/
10
11
15
19
#600000000
0!
1"
b000 #
0$
1%
b000 &
0'
0,
1-
0.
0/
00
01
12
05
09
1:
#605000000
1!
1$
1,
11
19
#610000000
0!
0"
0$
0%
0,
0-
01
02
09
0:
#615000000
1!
b001 #
1$
b001 &
1'
1,
1.
1/
10
11
15
19
#620000000
0!
1"
b000 #
0$
1%
b000 &
0'
0,
1-
0.
0/
00
01
12
05
09
1:
#625000000
1!
1$
1,
11
19
#630000000
0!
0"
0$
0%
0,
0-
01
02
09
0:
#635000000
1!
b001 #
1$
b001 &
1'
1,
1.
1/
10
11
15
19
#640000000
0!
1"
b000 #
0$
1%
b000 &
0'
0,
1-
0.
0/
00
01
12
05
09
1:
#645000000
1!
1$
1,
11
19
#650000000
0!
0"
0$
0%
0,
0-
01
02
09
0:
#655000000
1!
b001 #
1$
b001 &
1'
1,
1.
1/
10
11
15
19
#660000000
0!
1"
b000 #
0$
1%
b000 &
0'
0,
1-
0.
0/
00
01
12
05
09
1:
#665000000
1!
1$
1,
11
19
#670000000
0!
0"
0$
0%
0,
0-
01
02
09
0:
#675000000
1!
b001 #
1$
b001 &
1'
1,
1.
1/
10
11
15
19
#680000000
0!
1"
b000 #
0$
1%
b000 &
0'
0,
1-
0.
0/
00
01
12
05
09
1:
#685000000
1!
1$
1,
11
19
#690000000
0!
0"
0$
0%
0,
0-
01
02
09
0:
#695000000
1!
b001 #
1$
b001 &
1'
1,
1.
1/
10
11
15
19
#700000000
0!
1"
b000 #
0$
1%
b000 &
0'
0,
1-
0.
0/
00
01
12
05
09
1:
#705000000
1!
1$
1,
11
19
#710000000
0!
0"
0$
0%
0,
0-
01
02
09
0:
#715000000
1!
b001 #
1$
b001 &
1'
1,
1.
1/
10
11
15
19
#720000000
0!
1"
b000 #
0$
1%
b000 &
0'
0,
1-
0.
0/
00
01
12
05
09
1:
#725000000
1!
1$
1,
11
19
#730000000
0!
0"
0$
0%
0,
0-
01
02
09
0:
#735000000
1!
b001 #
1$
b001 &
1'
1,
1.
1/
10
11
15
19
#740000000
0!
1"
b000 #
0$
1%
b000 &
0'
0,
1-
0.
0/
00
01
12
05
09
1:
#745000000
1!
1$
1,
11
19
#750000000
0!
0"
0$
0%
0,
0-
01
02
09
0:
#755000000
1!
b001 #
1$
b001 &
1'
1,
1.
1/
10
11
15
19
#760000000
0!
1"
b000 #
0$
1%
b000 &
0'
0,
1-
0.
0/
00
01
12
05
09
1:
#765000000
1!
1$
1,
11
19
#770000000
0!
0"
0$
0%
0,
0-
01
02
09
0:
#775000000
1!
b001 #
1$
b001 &
1'
1,
1.
1/
10
11
15
19
#780000000
0!
1"
b000 #
0$
1%
b000 &
0'
0,
1-
0.
0/
00
01
12
05
09
1:
#785000000
1!
1$
1,
11
19
#790000000
0!
0"
0$
0%
0,
0-
01
02
09
0:
#795000000
1!
b001 #
1$
b001 &
1'
1,
1.
1/
10
11
15
19
#800000000
0!
1"
b000 #
0$
1%
b000 &
0'
0,
1-
0.
0/
00
01
12
05
09
1:
#805000000
1!
1$
1,
11
19
#810000000
0!
0"
0$
0%
0,
0-
01
02
09
0:
#815000000
1!
b001 #
1$
b001 &
1'
1,
1.
1/
10
11
15
19
#820000000
0!
1"
b000 #
0$
1%
b000 &
0'
0,
1-
0.
0/
00
01
12
05
09
1:
#825000000
1!
1$
1,
11
19
#830000000
0!
0"
0$
0%
0,
0-
01
02
09
0:
#835000000
1!
b001 #
1$
b001 &
1'
1,
1.
1/
10
11
15
19
#840000000
0!
1"
b000 #
0$
1%
b000 &
0'
0,
1-
0.
0/
00
01
12
05
09
1:
#845000000
1!
1$
1,
11
19
#850000000
0!
0"
0$
0%
0,
0-
01
02
09
0:
#855000000
1!
b001 #
1$
b001 &
1'
1,
1.
1/
10
11
15
19
#860000000
0!
1"
b000 #
0$
1%
b000 &
0'
0,
1-
0.
0/
00
01
12
05
09
1:
#865000000
1!
1$
1,
11
19
#870000000
0!
0"
0$
0%
0,
0-
01
02
09
0:
#875000000
1!
b001 #
1$
b001 &
1'
1,
1.
1/
10
11
15
19
#880000000
0!
1"
b000 #
0$
1%
b000 &
0'
0,
1-
0.
0/
00
01
12
05
09
1:
#885000000
1!
1$
1,
11
19
#890000000
0!
0"
0$
0%
0,
0-
01
02
09
0:
#895000000
1!
b001 #
1$
b001 &
1'
1,
1.
1/
10
11
15
19
#900000000
0!
1"
b000 #
0$
1%
b000 &
0'
0,
1-
0.
0/
00
01
12
05
09
1:
#905000000
1!
1$
1,
11
19
#910000000
0!
0"
0$
0%
0,
0-
01
02
09
0:
#915000000
1!
b001 #
1$
b001 &
1'
1,
1.
1/
10
11
15
19
#920000000
0!
1"
b000 #
0$
1%
b000 &
0'
0,
1-
0.
0/
00
01
12
05
09
1:
#925000000
1!
1$
1,
11
19
#930000000
0!
0"
0$
0%
0,
0-
01
02
09
0:
#935000000
1!
b001 #
1$
b001 &
1'
1,
1.
1/
10
11
15
19
#940000000
0!
1"
b000 #
0$
1%
b000 &
0'
0,
1-
0.
0/
00
01
12
05
09
1:
#945000000
1!
1$
1,
11
19
#950000000
0!
0"
0$
0%
0,
0-
01
02
09
0:
#955000000
1!
b001 #
1$
b001 &
1'
1,
1.
1/
10
11
15
19
#960000000
0!
1"
b000 #
0$
1%
b000 &
0'
0,
1-
0.
0/
00
01
12
05
09
1:
#965000000
1!
1$
1,
11
19
#970000000
0!
0"
0$
0%
0,
0-
01
02
09
0:
#975000000
1!
b001 #
1$
b001 &
1'
1,
1.
1/
10
11
15
19
#980000000
0!
1"
b000 #
0$
1%
b000 &
0'
0,
1-
0.
0/
00
01
12
05
09
1:
#985000000
1!
1$
1,
11
19
#990000000
0!
0"
0$
0%
0,
0-
01
02
09
0:
#995000000
1!
b001 #
1$
b001 &
1'
1,
1.
1/
10
11
15
19
#1000000000
0!
1"
b000 #
0$
1%
b000 &
0'
0,
1-
0.
0/
00
01
12
05
09
1:
#1005000000
1!
1$
1,
11
19
#1010000000
0!
0"
0$
0%
0,
0-
01
02
09
0:
#1015000000
1!
b001 #
1$
b001 &
1'
1,
1.
1/
10
11
15
19
#1020000000
0!
1"
b000 #
0$
1%
b000 &
0'
0,
1-
0.
0/
00
01
12
05
09
1:
#1025000000
1!
1$
1,
11
19
#1030000000
0!
0"
0$
0%
0,
0-
01
02
09
0:
#1035000000
1!
b001 #
1$
b001 &
1'
1,
1.
1/
10
11
15
19
#1040000000
0!
1"
b000 #
0$
1%
b000 &
0'
0,
1-
0.
0/
00
01
12
05
09
1:
#1045000000
1!
1$
1,
11
19
#1050000000
0!
0"
0$
0%
0,
0-
01
02
09
0:
#1055000000
1!
b001 #
1$
b001 &
1'
1,
1.
1/
10
11
15
19
#1060000000
0!
1"
b000 #
0$
1%
b000 &
0'
0,
1-
0.
0/
00
01
12
05
09
1:
#1065000000
1!
1$
1,
11
19
#1070000000
0!
0"
0$
0%
0,
0-
01
02
09
0:
#1075000000
1!
b001 #
1$
b001 &
1'
1,
1.
1/
10
11
15
19
#1080000000
0!
1"
b000 #
0$
1%
b000 &
0'
0,
1-
0.
0/
00
01
12
05
09
1:
#1085000000
1!
1$
1,
11
19
#1090000000
0!
0"
0$
0%
0,
0-
01
02
09
0:
#1095000000
1!
b001 #
1$
b001 &
1'
1,
1.
1/
10
11
15
19
#1100000000
0!
1"
b000 #
0$
1%
b000 &
0'
0,
1-
0.
0/
00
01
12
05
09
1:
#1105000000
1!
1$
1,
11
19
#1110000000
0!
0"
0$
0%
0,
0-
01
02
09
0:
#1115000000
1!
b001 #
1$
b001 &
1'
1,
1.
1/
10
11
15
19
#1120000000
0!
1"
b000 #
0$
1%
b000 &
0'
0,
1-
0.
0/
00
01
12
05
09
1:
#1125000000
1!
1$
1,
11
19
#1130000000
0!
0"
0$
0%
0,
0-
01
02
09
0:
#1135000000
1!
b001 #
1$
b001 &
1'
1,
1.
1/
10
11
15
19
#1140000000
0!
1"
b000 #
0$
1%
b000 &
0'
0,
1-
0.
0/
00
01
12
05
09
1:
#1145000000
1!
1$
1,
11
19
#1150000000
0!
0"
0$
0%
0,
0-
01
02
09
0:
#1155000000
1!
b001 #
1$
b001 &
1'
1,
1.
1/
10
11
15
19
#1160000000
0!
1"
b000 #
0$
1%
b000 &
0'
0,
1-
0.
0/
00
01
12
05
09
1:
#1165000000
1!
1$
1,
11
19
#1170000000
0!
0"
0$
0%
0,
0-
01
02
09
0:
#1175000000
1!
b001 #
1$
b001 &
1'
1,
1.
1/
10
11
15
19
#1180000000
0!
1"
b000 #
0$
1%
b000 &
0'
0,
1-
0.
0/
00
01
12
05
09
1:
#1185000000
1!
1$
1,
11
19
#1190000000
0!
0"
0$
0%
0,
0-
01
02
09
0:
#1195000000
1!
b001 #
1$
b001 &
1'
1,
1.
1/
10
11
15
19
#1200000000
0!
1"
b000 #
0$
1%
b000 &
0'
0,
1-
0.
0/
00
01
12
05
09
1:
#1205000000
1!
1$
1,
11
19
#1210000000
0!
0"
0$
0%
0,
0-
01
02
09
0:
#1215000000
1!
b001 #
1$
b001 &
1'
1,
1.
1/
10
11
15
19
#1220000000
0!
1"
b000 #
0$
1%
b000 &
0'
0,
1-
0.
0/
00
01
12
05
09
1:
#1225000000
1!
1$
1,
11
19
#1230000000
0!
0"
0$
0%
0,
0-
01
02
09
0:
#1235000000
1!
b001 #
1$
b001 &
1'
1,
1.
1/
10
11
15
19
#1240000000
0!
1"
b000 #
0$
1%
b000 &
0'
0,
1-
0.
0/
00
01
12
05
09
1:
#1245000000
1!
1$
1,
11
19
#1250000000
0!
0"
0$
0%
0,
0-
01
02
09
0:
#1255000000
1!
b001 #
1$
b001 &
1'
1,
1.
1/
10
11
15
19
#1260000000
0!
1"
b000 #
0$
1%
b000 &
0'
0,
1-
0.
0/
00
01
12
05
09
1:
#1265000000
1!
1$
1,
11
19
#1270000000
0!
0"
0$
0%
0,
0-
01
02
09
0:
#1275000000
1!
b001 #
1$
b001 &
1'
1,
1.
1/
10
11
15
19
#1280000000
0!
1"
b000 #
0$
1%
b000 &
0'
0,
1-
0.
0/
00
01
12
05
09
1:
#1285000000
1!
1$
1,
11
19
#1290000000
0!
0"
0$
0%
0,
0-
01
02
09
0:
#1295000000
1!
b001 #
1$
b001 &
1'
1,
1.
1/
10
11
15
19
#1300000000
0!
1"
b000 #
0$
1%
b000 &
0'
0,
1-
0.
0/
00
01
12
05
09
1:
#1305000000
1!
1$
1,
11
19
#1310000000
0!
0"
0$
0%
0,
0-
01
02
09
0:
#1315000000
1!
b001 #
1$
b001 &
1'
1,
1.
1/
10
11
15
19
#1320000000
0!
1"
b000 #
0$
1%
b000 &
0'
0,
1-
0.
0/
00
01
12
05
09
1:
#1325000000
1!
1$
1,
11
19
#1330000000
0!
0"
0$
0%
0,
0-
01
02
09
0:
#1335000000
1!
b001 #
1$
b001 &
1'
1,
1.
1/
10
11
15
19
#1340000000
0!
1"
b000 #
0$
1%
b000 &
0'
0,
1-
0.
0/
00
01
12
05
09
1:
#1345000000
1!
1$
1,
11
19
#1350000000
0!
0"
0$
0%
0,
0-
01
02
09
0:
#1355000000
1!
b001 #
1$
b001 &
1'
1,
1.
1/
10
11
15
19
#1360000000
0!
1"
b000 #
0$
1%
b000 &
0'
0,
1-
0.
0/
00
01
12
05
09
1:
#1365000000
1!
1$
1,
11
19
#1370000000
0!
0"
0$
0%
0,
0-
01
02
09
0:
#1375000000
1!
b001 #
1$
b001 &
1'
1,
1.
1/
10
11
15
19
#1380000000
0!
1"
b000 #
0$
1%
b000 &
0'
0,
1-
0.
0/
00
01
12
05
09
1:
#1385000000
1!
1$
1,
11
19
#1390000000
0!
0"
0$
0%
0,
0-
01
02
09
0:
#1395000000
1!
b001 #
1$
b001 &
1'
1,
1.
1/
10
11
15
19
#1400000000
0!
1"
b000 #
0$
1%
b000 &
0'
0,
1-
0.
0/
00
01
12
05
09
1:
#1405000000
1!
1$
1,
11
19
#1410000000
0!
0"
0$
0%
0,
0-
01
02
09
0:
#1415000000
1!
b001 #
1$
b001 &
1'
1,
1.
1/
10
11
15
19
#1420000000
0!
1"
b000 #
0$
1%
b000 &
0'
0,
1-
0.
0/
00
01
12
05
09
1:
#1425000000
1!
1$
1,
11
19
#1430000000
0!
0"
0$
0%
0,
0-
01
02
09
0:
#1435000000
1!
b001 #
1$
b001 &
1'
1,
1.
1/
10
11
15
19
#1440000000
0!
1"
b000 #
0$
1%
b000 &
0'
0,
1-
0.
0/
00
01
12
05
09
1:
#1445000000
1!
1$
1,
11
19
#1450000000
0!
0"
0$
0%
0,
0-
01
02
09
0:
#1455000000
1!
b001 #
1$
b001 &
1'
1,
1.
1/
10
11
15
19
#1460000000
0!
1"
b000 #
0$
1%
b000 &
0'
0,
1-
0.
0/
00
01
12
05
09
1:
#1465000000
1!
1$
1,
11
19
#1470000000
0!
0"
0$
0%
0,
0-
01
02
09
0:
#1475000000
1!
b001 #
1$
b001 &
1'
1,
1.
1/
10
11
15
19
#1480000000
0!
1"
b000 #
0$
1%
b000 &
0'
0,
1-
0.
0/
00
01
12
05
09
1:
#1485000000
1!
1$
1,
11
19
#1490000000
0!
0"
0$
0%
0,
0-
01
02
09
0:
#1495000000
1!
b001 #
1$
b001 &
1'
1,
1.
1/
10
11
15
19
#1500000000
0!
1"
b000 #
0$
1%
b000 &
0'
0,
1-
0.
0/
00
01
12
05
09
1:
#1505000000
1!
1$
1,
11
19
#1510000000
0!
0"
0$
0%
0,
0-
01
02
09
0:
#1515000000
1!
b001 #
1$
b001 &
1'
1,
1.
1/
10
11
15
19
#1520000000
0!
1"
b000 #
0$
1%
b000 &
0'
0,
1-
0.
0/
00
01
12
05
09
1:
#1525000000
1!
1$
1,
11
19
#1530000000
0!
0"
0$
0%
0,
0-
01
02
09
0:
#1535000000
1!
b001 #
1$
b001 &
1'
1,
1.
1/
10
11
15
19
#1540000000
0!
1"
b000 #
0$
1%
b000 &
0'
0,
1-
0.
0/
00
01
12
05
09
1:
#1545000000
1!
1$
1,
11
19
#1550000000
0!
0"
0$
0%
0,
0-
01
02
09
0:
#1555000000
1!
b001 #
1$
b001 &
1'
1,
1.
1/
10
11
15
19
#1560000000
0!
1"
b000 #
0$
1%
b000 &
0'
0,
1-
0.
0/
00
01
12
05
09
1:
#1565000000
1!
1$
1,
11
19
#1570000000
0!
0"
0$
0%
0,
0-
01
02
09
0:
#1575000000
1!
b001 #
1$
b001 &
1'
1,
1.
1/
10
11
15
19
#1580000000
0!
1"
b000 #
0$
1%
b000 &
0'
0,
1-
0.
0/
00
01
12
05
09
1:
#1585000000
1!
1$
1,
11
19
#1590000000
0!
0"
0$
0%
0,
0-
01
02
09
0:
#1595000000
1!
b001 #
1$
b001 &
1'
1,
1.
1/
10
11
15
19
#1600000000
0!
1"
b000 #
0$
1%
b000 &
0'
0,
1-
0.
0/
00
01
12
05
09
1:
#1605000000
1!
1$
1,
11
19
#1610000000
0!
0"
0$
0%
0,
0-
01
02
09
0:
#1615000000
1!
b001 #
1$
b001 &
1'
1,
1.
1/
10
11
15
19
#1620000000
0!
1"
b000 #
0$
1%
b000 &
0'
0,
1-
0.
0/
00
01
12
05
09
1:
#1625000000
1!
1$
1,
11
19
#1630000000
0!
0"
0$
0%
0,
0-
01
02
09
0:
#1635000000
1!
b001 #
1$
b001 &
1'
1,
1.
1/
10
11
15
19
#1640000000
0!
1"
b000 #
0$
1%
b000 &
0'
0,
1-
0.
0/
00
01
12
05
09
1:
#1645000000
1!
1$
1,
11
19
#1650000000
0!
0"
0$
0%
0,
0-
01
02
09
0:
#1655000000
1!
b001 #
1$
b001 &
1'
1,
1.
1/
10
11
15
19
#1660000000
0!
1"
b000 #
0$
1%
b000 &
0'
0,
1-
0.
0/
00
01
12
05
09
1:
#1665000000
1!
1$
1,
11
19
#1670000000
0!
0"
0$
0%
0,
0-
01
02
09
0:
#1675000000
1!
b001 #
1$
b001 &
1'
1,
1.
1/
10
11
15
19
#1680000000
0!
1"
b000 #
0$
1%
b000 &
0'
0,
1-
0.
0/
00
01
12
05
09
1:
#1685000000
1!
1$
1,
11
19
#1690000000
0!
0"
0$
0%
0,
0-
01
02
09
0:
#1695000000
1!
b001 #
1$
b001 &
1'
1,
1.
1/
10
11
15
19
#1700000000
0!
1"
b000 #
0$
1%
b000 &
0'
0,
1-
0.
0/
00
01
12
05
09
1:
#1705000000
1!
1$
1,
11
19
#1710000000
0!
0"
0$
0%
0,
0-
01
02
09
0:
#1715000000
1!
b001 #
1$
b001 &
1'
1,
1.
1/
10
11
15
19
#1720000000
0!
1"
b000 #
0$
1%
b000 &
0'
0,
1-
0.
0/
00
01
12
05
09
1:
#1725000000
1!
1$
1,
11
19
#1730000000
0!
0"
0$
0%
0,
0-
01
02
09
0:
#1735000000
1!
b001 #
1$
b001 &
1'
1,
1.
1/
10
11
15
19
#1740000000
0!
1"
b000 #
0$
1%
b000 &
0'
0,
1-
0.
0/
00
01
12
05
09
1:
#1745000000
1!
1$
1,
11
19
#1750000000
0!
0"
0$
0%
0,
0-
01
02
09
0:
#1755000000
1!
b001 #
1$
b001 &
1'
1,
1.
1/
10
11
15
19
#1760000000
0!
1"
b000 #
0$
1%
b000 &
0'
0,
1-
0.
0/
00
01
12
05
09
1:
#1765000000
1!
1$
1,
11
19
#1770000000
0!
0"
0$
0%
0,
0-
01
02
09
0:
#1775000000
1!
b001 #
1$
b001 &
1'
1,
1.
1/
10
11
15
19
#1780000000
0!
1"
b000 #
0$
1%
b000 &
0'
0,
1-
0.
0/
00
01
12
05
09
1:
#1785000000
1!
1$
1,
11
19
#1790000000
0!
0"
0$
0%
0,
0-
01
02
09
0:
#1795000000
1!
b001 #
1$
b001 &
1'
1,
1.
1/
10
11
15
19
#1800000000
0!
1"
b000 #
0$
1%
b000 &
0'
0,
1-
0.
0/
00
01
12
05
09
1:
#1805000000
1!
1$
1,
11
19
#1810000000
0!
0"
0$
0%
0,
0-
01
02
09
0:
#1815000000
1!
b001 #
1$
b001 &
1'
1,
1.
1/
10
11
15
19
#1820000000
0!
1"
b000 #
0$
1%
b000 &
0'
0,
1-
0.
0/
00
01
12
05
09
1:
#1825000000
1!
1$
1,
11
19
#1830000000
0!
0"
0$
0%
0,
0-
01
02
09
0:
#1835000000
1!
b001 #
1$
b001 &
1'
1,
1.
1/
10
11
15
19
#1840000000
0!
1"
b000 #
0$
1%
b000 &
0'
0,
1-
0.
0/
00
01
12
05
09
1:
#1845000000
1!
1$
1,
11
19
#1850000000
0!
0"
0$
0%
0,
0-
01
02
09
0:
#1855000000
1!
b001 #
1$
b001 &
1'
1,
1.
1/
10
11
15
19
#1860000000
0!
1"
b000 #
0$
1%
b000 &
0'
0,
1-
0.
0/
00
01
12
05
09
1:
#1865000000
1!
1$
1,
11
19
#1870000000
0!
0"
0$
0%
0,
0-
01
02
09
0:
#1875000000
1!
b001 #
1$
b001 &
1'
1,
1.
1/
10
11
15
19
#1880000000
0!
1"
b000 #
0$
1%
b000 &
0'
0,
1-
0.
0/
00
01
12
05
09
1:
#1885000000
1!
1$
1,
11
19
#1890000000
0!
0"
0$
0%
0,
0-
01
02
09
0:
#1895000000
1!
b001 #
1$
b001 &
1'
1,
1.
1/
10
11
15
19
#1900000000
0!
1"
b000 #
0$
1%
b000 &
0'
0,
1-
0.
0/
00
01
12
05
09
1:
#1905000000
1!
1$
1,
11
19
#1910000000
0!
0"
0$
0%
0,
0-
01
02
09
0:
#1915000000
1!
b001 #
1$
b001 &
1'
1,
1.
1/
10
11
15
19
#1920000000
0!
1"
b000 #
0$
1%
b000 &
0'
0,
1-
0.
0/
00
01
12
05
09
1:
#1925000000
1!
1$
1,
11
19
#1930000000
0!
0"
0$
0%
0,
0-
01
02
09
0:
#1935000000
1!
b001 #
1$
b001 &
1'
1,
1.
1/
10
11
15
19
