sequence detector/result.vcd
$date
  Tue Feb 20 21:09:45 2024
$end
$version
  GHDL v0
$end
$timescale
  1 fs
$end
$scope module standard $end
$upscope $end
$scope module std_logic_1164 $end
$upscope $end
$scope module testbench $end
$var reg 1 ! clk $end
$var reg 1 " rst $end
$var reg 1 # x $end
$var reg 1 $ z $end
$scope module uut $end
$var reg 1 % clk $end
$var reg 1 & rst $end
$var reg 1 ' x $end
$var reg 1 ( z $end
$comment currentstate is not handled $end
$comment nextstate is not handled $end
$upscope $end
$upscope $end
$enddefinitions $end
#0
0!
1"
0#
0$
0%
1&
0'
0(
#5000000
1!
1%
#10000000
0!
0%
#15000000
1!
1%
#20000000
0!
0%
#25000000
1!
1%
#30000000
0!
0"
0%
0&
#35000000
1!
1%
#40000000
0!
0%
#45000000
1!
1%
#50000000
0!
0%
#55000000
1!
1%
#60000000
0!
0%
#65000000
1!
1%
#70000000
0!
1#
0%
1'
#75000000
1!
1%
#80000000
0!
0#
0%
0'
#85000000
1!
1%
#90000000
0!
1#
0%
1'
#95000000
1!
1%
#100000000
0!
0%
#105000000
1!
1$
1%
1(
#110000000
0!
0#
0%
0'
#115000000
1!
0$
1%
0(
